1 10 20
100 200 125
201 210 89
900 1000 174
10 1 20
1000 900 174
210 201 89
200 100 125
1 1 1
1000 1000 112
1 1000 179
1000 1 179
1 2 2
2 1 2
1 999 179
999 1000 112
1 500 144
500 1000 179
500 499 111
1000 500 179
1 100 119
100 1 119
101 200 125
200 101 125
1 250 128
250 500 144
500 750 171
750 1000 179
250 1 128
750 500 171
1 333 144
333 666 145
666 999 179
333 1 144
999 666 179
100 300 128
300 100 128
1 300 128
300 1 128
400 700 145
700 400 145
10 20 21
20 10 21
5 15 20
15 5 20
1 999 179
999 1 179
30 40 107
40 30 107
800 900 179
900 800 179
10 100 119
100 10 119
111 222 125
222 111 125
1 123 119
123 1 119
321 432 144
432 321 144
10 1 20
1 10 20
200 100 125
100 200 125
210 201 89
201 210 89
1000 900 174
900 1000 174
11 22 21
22 11 21
333 444 134
444 333 134
555 666 145
666 555 145
777 888 179
888 777 179
999 111 179
111 999 179
111 222 125
222 333 144
333 444 134
444 555 142
555 666 145
666 777 171
777 888 179
888 999 174
999 1000 112
1000 999 112
2 2 2
999 999 50
500 500 111
100 1000 179
1000 100 179
100 99 26
99 100 26
500 400 142
400 500 142
300 400 144
400 300 144
300 300 17
1 300 128
300 1 128
250 260 123
260 250 123
100 300 128
300 100 128
200 300 128
300 200 128
340 350 126
350 340 126
50 100 119
100 50 119
60 70 108
70 60 108
111 121 96
