1 10 20
100 200 125
201 210 89
900 1000 174
49235 99989 351
1412 40191 324
88372 33580 351
93654 18244 351
26606 71030 340
84094 5497 351
2601 17315 276
85193 84228 302
69093 4304 340
36541 4392 324
12967 999 268
4438 4893 197
14268 4400 276
54674 68227 335
63503 83699 351
44927 88601 351
94771 5158 351
84050 96367 333
40159 73448 340
36810 41765 306
22245 85885 351
33561 23855 308
9090 71605 340
55530 27375 340
58007 10692 340
1909 42167 324
68166 21291 340
41920 57539 340
40209 20601 324
93403 26304 351
62645 77725 351
86172 25873 351
61442 30342 340
99477 31544 351
30690 84488 351
33209 4313 308
35772 48039 314
38115 34447 324
21590 10614 279
61892 31906 340
63088 13431 340
70163 53293 335
27133 74871 340
42361 79806 351
54238 58230 322
92191 17534 351
76480 82996 351
19231 73001 340
84814 73035 351
75299 5621 340
48654 75117 340
31208 65024 340
6235 85734 351
66181 90413 351
87102 17430 351
77705 41401 351
32723 96753 351
58205 78469 351
7030 35806 324
34759 27015 311
69078 39522 340
76124 25373 340
86640 40668 351
81902 52148 351
43661 12617 324
78533 51025 351
19195 2914 279
67281 35227 340
72577 5307 340
3790 45497 324
54556 92160 351
64123 11989 340
59747 94675 351
9458 39844 324
68968 35529 340
1475 96191 351
35606 191 311
2683 11511 268
85395 61466 351
38678 87850 351
50581 9830 324
4748 82577 351
31929 1296 308
19849 13177 279
50644 34384 324
63666 14914 340
69675 25666 340
39125 89000 351
36640 28646 324
73116 77449 351
99188 70687 351
65770 28234 340
54700 8895 340
82567 12500 351
14400 7077 276
20636 31692 308
19676 73488 340
14561 15979 271
44226 47113 314
96297 97507 297
10151 40243 324
94849 43511 351
90680 56776 351
29615 35935 324
68110 10171 340
29208 45735 324
51947 87540 351
31915 93175 351
53854 12067 340
97344 6274 351
53026 52164 340
66849 34032 340
57024 75231 335
70339 17677 340
41266 15259 324
32722 86063 351
72967 63447 325
25269 43841 324
11171 50041 324
27534 74091 340
96219 49195 351
26155 42468 324
35158 4167 311
46597 86777 351
79001 94876 333
72175 24530 340
22607 54972 340
42505 99044 351
32025 23190 308
39784 42930 306
37623 31702 324
27373 40562 324
95930 24725 351
71445 53483 335
81810 61424 351
24724 66582 340
74340 56061 335
50512 30413 324
5198 66962 340
68630 28370 340
24531 25080 264
20318 67908 340
5156 95706 351
32502 64040 340
66799 4250 340
97602 61699 351
18595 14513 279
18088 58415 340
19227 78068 351
64424 37613 340
14674 20505 279
35266 18865 311
63597 84929 351
95626 20782 351
39920 46498 314
10992 81541 351
44137 13387 324
1080 51881 324
1671 96289 351
24895 71546 340
14092 29620 308
56604 64118 335
94225 62229 351
76594 23003 340
69053 20080 340
8725 55586 340
48739 6175 324
81098 67910 351
55682 69291 335
46841 21711 324
56648 63392 335
36932 41494 306
92732 93407 315
95399 67933 351
12351 51004 324
99578 66802 351
90726 68911 351
13903 7599 276
79359 54299 351
22279 9731 279
7133 97778 351
24154 58031 340
18653 95066 351
77337 26860 351
28359 4607 308
16566 54961 340
61357 32333 340
9131 27678 308
84690 21476 351
4488 55424 340
49569 66585 340
37867 44640 306
62081 68793 330
19522 79568 351
86586 94313 333
63249 92766 351
61412 36531 340
25154 80222 351
14459 81537 351
31970 49879 324
