410433 519165 470
337847 521941 470
817307 749232 468
422421 147286 449
623449 872509 525
22253 571596 470
161723 51094 383
572845 535670 452
388164 329125 441
119045 61209 354
114806 171593 383
163180 277081 443
290054 613088 470
627814 255692 509
214185 205859 373
976712 645461 525
839811 416938 525
193078 908917 525
606166 255198 470
412006 306654 449
133330 457726 449
219549 326008 443
385205 412924 449
328254 347629 441
943777 835999 525
182948 740106 509
311965 265709 407
337523 4306 443
666857 210255 509
373684 514843 470
314046 732606 509
86910 826279 509
999929 150764 525
478586 228491 449
634731 4549 509
50691 783467 509
329344 8374 443
408957 266324 441
921241 287923 525
27935 744231 509
458840 785178 509
202728 742406 509
596493 595460 372
513508 372460 470
678276 177721 509
300555 608163 470
735610 427892 509
778050 633792 504
431480 635001 509
621408 483281 470
272734 832037 509
596222 659761 509
578233 896393 525
767425 915872 525
11664 842235 525
657765 392222 509
28461 338133 443
907607 987369 507
403276 425869 449
450823 207693 449
783847 634927 504
105701 723603 509
529496 393238 470
298792 58923 443
809270 42002 509
489599 796826 509
472501 512923 470
583431 643201 509
205847 799048 509
775263 638855 504
821319 345003 509
966568 998648 458
996683 755695 525
14844 463315 449
348688 835646 509
71042 289448 443
26631 100872 351
238891 137702 443
237290 74498 443
6778 357466 443
857260 10827 525
785936 875071 525
573865 991670 525
231801 465266 449
520815 403600 470
651974 674190 442
376793 447273 449
849117 93842 525
70635 941090 525
954905 645152 525
518076 28811 470
189295 197680 360
751167 413409 509
21432 4553 279
397417 993699 525
615252 497499 470
488111 955679 525
385412 230936 441
967356 448937 525
869300 668010 525
674812 395068 509
69081 416090 449
421045 526291 470
220684 820029 509
58267 953604 525
810434 719249 468
412838 297167 449
21172 230182 386
358856 2014 443
251847 16255 443
497573 58423 449
885624 125343 525
597145 317346 470
496010 908305 525
818329 480206 509
689074 834790 504
608129 574363 434
622641 699206 509
520144 885871 525
137193 306317 443
579279 22916 470
408884 739684 509
160766 794341 509
488404 47837 449
577283 2547 470
17165 953293 525
864506 329225 525
142239 198000 383
234770 517105 470
412752 72307 449
192558 677401 509
551696 777514 509
790413 17087 509
160111 285603 443
212076 21883 383
246021 336961 407
503444 423005 444
876886 847073 432
623732 917473 525
65143 388635 443
935836 390365 525
611099 970875 525
168224 507951 449
149094 92742 375
336125 682365 509
944689 288126 525
728066 765895 424
575644 437077 470
997833 239284 525
374690 169107 443
229072 572291 470
958965 799118 525
824052 875934 525
202646 132070 383
636683 678959 442
637445 278651 509
760980 85133 509
823017 470641 509
837 8952 262
930041 405413 525
293578 89621 443
421630 941563 525
340959 766044 509
4161 83748 351
983531 51975 525
179434 934821 525
379751 20544 443
198088 150661 383
186252 361690 443
670786 911878 525
2852 890869 525
326096 799663 509
432949 820323 509
15587 888990 525
673002 910222 525
806272 910920 525
799737 544835 509
537021 583649 452
993087 104265 525
185050 786635 509
565900 969232 525
509044 470834 426
254108 234243 368
198277 76916 383
567444 839045 525
228297 693163 509
679237 301598 509
561433 560432 346
975653 980265 383
698879 768763 504
642058 622584 509
494757 629753 509
554643 424313 470
574468 61345 470
487333 273573 449
942627 730242 525
144664 151545 370
485179 851661 525
330395 461962 449
