........................
----------------------------------------------------------------------
Ran 24 tests in 7.387s

OK
Name             Stmts   Miss Branch BrPart  Cover   Missing
------------------------------------------------------------
Collatz.py          34      0     12      0   100%
TestCollatz.py     102      0      0      0   100%
------------------------------------------------------------
TOTAL              136      0     12      0   100%
